statistical_analysis_epistasis
…
adaptive_traj %>%
  mutate(outlier = abs(means - avg) > log10(1.5))

## # A tibble: 582 x 11
##    genotype      avg pos   mutations likely unique_id enzyme_name measure_type
##    <chr>       <dbl> <chr>     <dbl> <lgl>  <chr>     <chr>       <chr>       
##  1 x0000     0.352   p21           1 FALSE  DHFR_ki_~ DHFR        ki          
##  2 xx000     0.331   p21|~         2 FALSE  DHFR_ki_~ DHFR        ki          
##  3 xxx00     0.354   p21|~         3 FALSE  DHFR_ki_~ DHFR        ki          
##  4 xxxx0    -0.169   p21|~         4 FALSE  DHFR_ki_~ DHFR        ki          
##  5 xxxxx    -0.402   p21|~         5 TRUE   DHFR_ki_~ DHFR        ki          
##  6 xxx0x    -0.173   p21|~         4 FALSE  DHFR_ki_~ DHFR        ki          
##  7 xx0x0    -0.187   p21|~         3 FALSE  DHFR_ki_~ DHFR        ki          
##  8 xx0xx     0.527   p21|~         4 FALSE  DHFR_ki_~ DHFR        ki          
##  9 xx00x     0.00134 p21|~         3 FALSE  DHFR_ki_~ DHFR        ki          
## 10 x0x00     0.218   p21|~         2 FALSE  DHFR_ki_~ DHFR        ki          
## # ... with 572 more rows, and 3 more variables: cond <chr>, means <dbl>,
## #   outlier <lgl>
…
